{
  "page": 1,
  "per_page": 10,
  "total": 155,
  "total_pages": 16,
  "data": [
    {
      "id": 1,
      "userId": 1,
      "userName": "John Oliver",
      "timestamp": 1549536882071,
      "txnType": "debit",
      "amount": "$1,670.57",
      "location": {
        "id": 7,
        "address": "770, Deepends, Stockton Street",
        "city": "Ripley",
        "zipCode": 44139
      },
      "ip": "212.215.115.165"
    },
    {
      "id": 2,
      "userId": 2,
      "userName": "Bob Martin",
      "timestamp": 1549260902604,
      "txnType": "debit",
      "amount": "$3,574.95",
      "location": {
        "id": 8,
        "address": "389, Everest, Barwell Terrace",
        "city": "Murillo",
        "zipCode": 66061
      },
      "ip": "212.215.115.165"
    },
    {
      "id": 3,
      "userId": 3,
      "userName": "Helena Fernandez",
      "timestamp": 1549530365037,
      "txnType": "debit",
      "amount": "$2,718.70",
      "location": {
        "id": 1,
        "address": "948, Entroflex, Franklin Avenue",
        "city": "Ilchester",
        "zipCode": 84181
      },
      "ip": "142.216.23.1"
    },
    {
      "id": 4,
      "userId": 2,
      "userName": "Bob Martin",
      "timestamp": 1549272069586,
      "txnType": "credit",
      "amount": "$0.87",
      "location": {
        "id": 8,
        "address": "389, Everest, Barwell Terrace",
        "city": "Murillo",
        "zipCode": 66061
      },
      "ip": "119.162.205.226"
    },
    {
      "id": 5,
      "userId": 3,
      "userName": "Helena Fernandez",
      "timestamp": 1549170316216,
      "txnType": "credit",
      "amount": "$642.39",
      "location": {
        "id": 7,
        "address": "770, Deepends, Stockton Street",
        "city": "Ripley",
        "zipCode": 44139
      },
      "ip": "35.151.1.82"
    },
    {
      "id": 6,
      "userId": 3,
      "userName": "Helena Fernandez",
      "timestamp": 1549096617797,
      "txnType": "debit",
      "amount": "$2,241.65",
      "location": {
        "id": 7,
        "address": "770, Deepends, Stockton Street",
        "city": "Ripley",
        "zipCode": 44139
      },
      "ip": "119.162.205.226"
    },
    {
      "id": 9,
      "userId": 1,
      "userName": "John Oliver",
      "timestamp": 1551503697834,
      "txnType": "debit",
      "amount": "$295.66",
      "location": {
        "id": 6,
        "address": "206, Portaline, Brooklyn Avenue",
        "city": "Brownlee",
        "zipCode": 80358
      },
      "ip": "132.169.40.222"
    },
    {
      "id": 10,
      "userId": 2,
      "userName": "Bob Martin",
      "timestamp": 1552863189963,
      "txnType": "debit",
      "amount": "$3,611.80",
      "location": {
        "id": 1,
        "address": "948, Entroflex, Franklin Avenue",
        "city": "Ilchester",
        "zipCode": 84181
      },
      "ip": "212.215.115.165"
    },
    {
      "id": 11,
      "userId": 1,
      "userName": "John Oliver",
      "timestamp": 1547112098173,
      "txnType": "credit",
      "amount": "$1,100.59",
      "location": {
        "id": 9,
        "address": "961, Neptide, Elliott Walk",
        "city": "Bourg",
        "zipCode": 68602
      },
      "ip": "142.216.23.1"
    },
    {
      "id": 12,
      "userId": 1,
      "userName": "John Oliver",
      "timestamp": 1553870734435,
      "txnType": "debit",
      "amount": "$892.10",
      "location": {
        "id": 8,
        "address": "389, Everest, Barwell Terrace",
        "city": "Murillo",
        "zipCode": 66061
      },
      "ip": "181.191.153.61"
    }
  ]
}